Case study 3: Asphalt
…
Quantitative variables with one response: multiple regression.

Some issues here that don’t come up in “simple” regression; handle as we go. (STAB27/STAC67 ideas.)

The data (some)

asphalt

## # A tibble: 31 x 7
##    pct.a.surf pct.a.base fines voids rut.depth
##         <dbl>      <dbl> <dbl> <dbl>     <dbl>
##  1       4.68       4.87   8.4  4.92      6.75
##  2       5.19       4.5    6.5  4.56     13   
##  3       4.82       4.73   7.9  5.32     14.8 
##  4       4.85       4.76   8.3  4.86     12.6 
##  5       4.86       4.95   8.4  3.78      8.25
##  6       5.16       4.45   7.4  4.40     10.7 
##  7       4.82       5.05   6.8  4.87      7.28
##  8       4.86       4.7    8.6  4.83     12.7 
##  9       4.78       4.84   6.7  4.86     12.6 
## 10       5.16       4.76   7.7  4.03     20.6 
## # … with 21 more rows, and 2 more variables:
## #   viscosity <dbl>, run <dbl>
…
