Comparing Skin Creams
…
Three of the 30 subjects dropped out before the study was complete; these are the missing values in the data set above.

Tidying

The data in the current format are not suitable for analysis because they are not “tidy”: the three columns are all numbers of blemishes under different conditions, and the column names are not variables themselves but levels of a categorical variable that says which skin cream a subject received. We need the numbers of blemishes in one column, with a second column saying which treatment (cream) the subject received.

That is to say, we need to make the data set longer (and to remove the missing values):

cosmetic %>%
    pivot_longer(everything(), names_to="treatment", 
                 values_to="blemishes", values_drop_na=T) -> cosmetic_tidy
cosmetic_tidy

## # A tibble: 27 x 2
##    treatment blemishes
##    <chr>         <dbl>
##  1 New              81
##  2 Old              48
##  3 Control          18
##  4 New              32
##  5 Old              31
##  6 Control          49
##  7 New              42
##  8 Old              25
##  9 Control          33
## 10 New              62
## # … with 17 more rows
…
